^C:\USERS\SPART\ONEDRIVE\DOCUMENTS\REPOS\2D PROGRAMMING\ALLEGRO_TEST\ALLEGRO_TEST\ALLEGROTEST.CPP
C:\USERS\SPART\ONEDRIVE\DOCUMENTS\REPOS\2D PROGRAMMING\ALLEGRO_TEST\ALLEGRO_TEST\DEBUG\VC141.PDB
C:\USERS\SPART\ONEDRIVE\DOCUMENTS\REPOS\2D PROGRAMMING\ALLEGRO_TEST\ALLEGRO_TEST\DEBUG\VC141.IDB
